digraph "C:/Projekty/Azure Functions/SolarPanelControler-kopie/SolarPanelController/obj/Release"
{
 // LATEX_PDF_SIZE
  edge [fontname="Helvetica",fontsize="10",labelfontname="Helvetica",labelfontsize="10"];
  node [fontname="Helvetica",fontsize="10",shape=record];
  compound=true
  subgraph clusterdir_16015738e583315bd406bc4c21fcdad2 {
    graph [ bgcolor="#edf0f7", pencolor="grey50", style="filled,dashed,", label="obj", fontname="Helvetica", fontsize="10", URL="dir_16015738e583315bd406bc4c21fcdad2.html"]
  subgraph clusterdir_c4e730b23de00811abdf98b173d9f56b {
    graph [ bgcolor="#edf0f7", pencolor="grey25", style="filled,bold,", label="", fontname="Helvetica", fontsize="10", URL="dir_c4e730b23de00811abdf98b173d9f56b.html"]
    dir_c4e730b23de00811abdf98b173d9f56b [shape=plaintext, label="Release"];
  dir_78ea78a8934e0f2b5a2a6e27a94a68ee [shape=box, label="net6.0", style="filled,", fillcolor="#a2b4d6", color="grey25", URL="dir_78ea78a8934e0f2b5a2a6e27a94a68ee.html"];
  }
  }
}
