digraph "Graphical Class Hierarchy"
{
 // LATEX_PDF_SIZE
  edge [fontname="Helvetica",fontsize="10",labelfontname="Helvetica",labelfontsize="10"];
  node [fontname="Helvetica",fontsize="10",shape=record];
  rankdir="LR";
  Node0 [label="ControllerUiPage",height=0.2,width=0.4,color="black", fillcolor="white", style="filled",URL="$class_controller_ui_page.html",tooltip="Represents html page which we used as user interface in our azure functions."];
}
